<?xml version="1.0" encoding="utf-8"?>
<!-- Generator: Adobe Illustrator 16.0.0, SVG Export Plug-In . SVG Version: 6.00 Build 0)  -->
<!DOCTYPE svg PUBLIC "-//W3C//DTD SVG 1.1//EN" "http://www.w3.org/Graphics/SVG/1.1/DTD/svg11.dtd">
<svg version="1.1" id="Layer_1" xmlns="http://www.w3.org/2000/svg" xmlns:xlink="http://www.w3.org/1999/xlink" x="0px" y="0px"
	 width="200px" height="307px" viewBox="0 0 200 307" enable-background="new 0 0 200 307" xml:space="preserve">
<g id="_x23_1197a1ff">
	<path fill="#1197A1" d="M71.76,14.23c-1.36-2.41-0.48-5.99,2.26-6.97c2.35-0.32,5.41-0.45,6.5,2.17c3.84,7.31,7.32,14.8,11.17,22.1
		c2.63,4.98,5.14,10.03,7.57,15.11c1.84,4.11,4.07,8.02,5.95,12.11c0.87,1.85,1.06,4.34-0.39,5.96c-1.87,2.6-6.53,2.37-8.01-0.52
		c-2.41-4.23-4.28-8.75-6.66-13.01c-3.34-6.5-6.67-13.01-9.77-19.63C77.58,25.74,74.59,20.02,71.76,14.23z"/>
	<path fill="#1197A1" d="M126.82,8.85c0.92-1.47,2.74-1.7,4.209-2.33c1.75,0.72,3.861,1.45,4.48,3.46c0.59,1.86,0.17,3.95-1.13,5.41
		c-4.069,5.35-8.04,10.78-12.159,16.1c-3.74,0.02-7.48,0.02-11.221-0.01c0.17-1.47,0.76-2.81,1.721-3.93
		C117.48,21.37,122.05,15.03,126.82,8.85z"/>
	<path fill="#1197A1" d="M71.69,95.62c3.35,2.22,5.95,5.47,9.62,7.24c5.36,2.95,11.62,3.6,17.64,3.26
		c8.69-0.38,17.92,0.61,25.329,5.53c5.941,3.83,9.451,10.53,10.641,17.36c-0.01,4.13,4.92,5.49,5.53,9.38
		c0.46,3.38,0.42,6.85,0.03,10.24c-0.621,3.51-3.721,5.649-6.66,7.19c-2.53,9.529-8.711,18.24-17.961,22.199
		c0.281,2.94-0.93,7.181,2.341,8.82c6.329,3.34,12.79,6.46,19.13,9.79c5.13,2.69,8.07,8.2,8.59,13.83
		c16.53,0.05,33.051,0,49.57,0.03c0.01,26.5-0.01,53.01,0.01,79.51c0.359,5.24-4.279,10.27-9.55,10.221
		c-55.33,0.069-110.66-0.011-165.99,0.039c-2.54-0.06-5.23,0.301-7.6-0.82c-3.36-1.399-5.89-4.869-5.84-8.549
		c-0.03-26.801,0-53.601-0.01-80.4c16.45,0,32.9-0.061,49.35,0.029c0.61-5.149,2.72-10.439,7.24-13.34
		c7.02-4.25,14.91-6.91,21.88-11.24c1.66-2.26,0.94-5.289,1.13-7.91c-9.26-3.93-15.5-12.659-17.99-22.199
		c-1.99-1.24-4.3-2.3-5.49-4.43c-2.12-3.43-1.63-7.69-1.44-11.52c0.15-3.37,2.61-5.89,5.13-7.81c0.79-4.76,1.63-9.57,3.56-14.03
		c1.06-2.66,2.55-5.16,3.19-7.97C73.35,105.19,71.17,100.51,71.69,95.62 M73.28,231.13c-2.54,1.57-3.21,5.42-1.17,7.649
		c1.29,1.891,3.82,1.951,5.88,2.061c15.35,0,30.689,0,46.039,0c2.041-0.07,4.48-0.24,5.82-2.02c1.76-2.061,1.43-5.391-0.529-7.19
		c-1.45-1.31-3.51-1.2-5.32-1.21c-15.34,0.04-30.67,0.051-46.01,0C76.42,230.48,74.7,230.26,73.28,231.13 M55.3,250.32
		c-5.59,0.619-5.49,9.709,0.12,10.14c29.86,0.22,59.74,0.021,89.6,0.101c2.75,0.31,5.53-1.59,5.801-4.431
		c0.63-3.33-2.49-6.22-5.73-5.95C115.16,250.23,85.21,249.96,55.3,250.32 M54.39,270.42c-3.92,1.28-4.45,7.18-1.01,9.29
		c2.97,1.271,6.39,1.04,9.5,0.47c4.31-1.1,4.63-8.02,0.47-9.56C60.48,269.8,57.32,270,54.39,270.42 M79.39,270.42
		c-4.84,1.32-4.43,9.26,0.61,9.9c4.29,0.32,8.73,0.609,12.97-0.26c4.69-1.42,3.88-9.36-1-9.82
		C87.79,270.17,83.54,269.87,79.39,270.42 M109.311,270.359c-5.08,1.23-4.49,9.701,0.81,10.011c3.351,0.229,7.94,1.05,10.09-2.24
		c2.09-2.79,0.229-7.319-3.2-7.86C114.45,270.04,111.85,269.99,109.311,270.359 M134.29,270.33c-4.681,1.09-4.84,8.67-0.19,9.85
		c4.561,0.541,9.381,0.82,13.871-0.24c4.359-1.709,3.539-8.819-1.011-9.66C142.74,270.08,138.49,270,134.29,270.33z"/>
</g>
<g id="_x23_e8ecedff">
	<path fill="#E8ECED" d="M91.69,31.53c6.44-0.07,12.871,0,19.31-0.05c3.74,0.03,7.48,0.03,11.221,0.01
		c20.92,0.02,41.829,0,62.739,0.01c5.319-0.29,10.5,4.09,10.521,9.53c0.039,56.49,0.01,112.97,0.01,169.46
		c-16.52-0.03-33.04,0.02-49.57-0.03c-0.52-5.63-3.46-11.14-8.59-13.83c-6.34-3.33-12.801-6.45-19.13-9.79
		c-3.271-1.64-2.06-5.88-2.341-8.82c9.25-3.959,15.431-12.67,17.961-22.199c2.939-1.541,6.039-3.68,6.66-7.19
		c0.39-3.39,0.43-6.86-0.03-10.24c-0.61-3.89-5.54-5.25-5.53-9.38c-1.189-6.83-4.699-13.53-10.641-17.36
		c-7.409-4.92-16.639-5.91-25.329-5.53c-6.02,0.34-12.28-0.31-17.64-3.26c-3.67-1.77-6.27-5.02-9.62-7.24
		c-0.52,4.89,1.66,9.57,1.38,14.45c-0.64,2.81-2.13,5.31-3.19,7.97c-1.93,4.46-2.77,9.27-3.56,14.03c-2.52,1.92-4.98,4.44-5.13,7.81
		c-0.19,3.83-0.68,8.09,1.44,11.52c1.19,2.13,3.5,3.19,5.49,4.43c2.49,9.54,8.73,18.27,17.99,22.199
		c-0.19,2.621,0.53,5.65-1.13,7.91c-6.97,4.33-14.86,6.99-21.88,11.24c-4.52,2.9-6.63,8.19-7.24,13.34
		c-16.45-0.09-32.9-0.029-49.35-0.029C6.5,154,6.5,97.51,6.5,41.03c-0.1-5.42,5.21-9.77,10.44-9.53c21.15,0.03,42.3-0.05,63.44,0.05
		c3.1,6.62,6.43,13.13,9.77,19.63c-3.74,4.5-5.28,11.01-2.63,16.41c2.96,6.95,11.7,10.64,18.71,7.73
		c7.629-2.7,11.84-12.36,8.25-19.71c-2.451-5.94-8.931-9.36-15.221-8.97C96.83,41.56,94.32,36.51,91.69,31.53z"/>
	<path fill="#E8ECED" d="M73.28,231.13c1.42-0.87,3.14-0.649,4.71-0.71c15.34,0.051,30.67,0.04,46.01,0
		c1.811,0.01,3.87-0.1,5.32,1.21c1.959,1.8,2.289,5.13,0.529,7.19c-1.34,1.779-3.779,1.949-5.82,2.02c-15.35,0-30.689,0-46.039,0
		c-2.06-0.109-4.59-0.17-5.88-2.061C70.07,236.55,70.74,232.7,73.28,231.13z"/>
	<path fill="#E8ECED" d="M55.3,250.32c29.91-0.36,59.86-0.09,89.79-0.141c3.24-0.27,6.36,2.62,5.73,5.95
		c-0.271,2.841-3.051,4.74-5.801,4.431c-29.859-0.08-59.74,0.119-89.6-0.101C49.81,260.029,49.71,250.939,55.3,250.32z"/>
	<path fill="#E8ECED" d="M54.39,270.42c2.93-0.42,6.09-0.62,8.96,0.2c4.16,1.54,3.84,8.46-0.47,9.56c-3.11,0.57-6.53,0.801-9.5-0.47
		C49.94,277.6,50.47,271.7,54.39,270.42z"/>
	<path fill="#E8ECED" d="M79.39,270.42c4.15-0.55,8.4-0.25,12.58-0.18c4.88,0.46,5.69,8.4,1,9.82c-4.24,0.869-8.68,0.58-12.97,0.26
		C74.96,279.68,74.55,271.74,79.39,270.42z"/>
	<path fill="#E8ECED" d="M109.311,270.359c2.539-0.369,5.14-0.319,7.699-0.09c3.43,0.541,5.29,5.07,3.2,7.86
		c-2.149,3.29-6.739,2.47-10.09,2.24C104.82,280.061,104.23,271.59,109.311,270.359z"/>
	<path fill="#E8ECED" d="M134.29,270.33c4.2-0.33,8.45-0.25,12.67-0.051c4.55,0.841,5.37,7.951,1.011,9.66
		c-4.49,1.061-9.311,0.781-13.871,0.24C129.45,279,129.609,271.42,134.29,270.33z"/>
</g>
</svg>
