<?xml version="1.0" encoding="UTF-8" ?>
<!DOCTYPE svg PUBLIC "-//W3C//DTD SVG 1.1//EN" "http://www.w3.org/Graphics/SVG/1.1/DTD/svg11.dtd">
<svg width="300pt" height="306pt" viewBox="0 0 300 306" version="1.1" xmlns="http://www.w3.org/2000/svg">
<g id="#f89f32ff">
<path fill="#f89f32" opacity="1.00" d=" M 240.56 27.03 C 242.29 36.71 242.33 47.86 235.83 55.90 C 228.57 64.81 216.74 67.74 205.91 69.57 C 192.67 71.71 179.24 72.05 165.91 73.34 C 157.39 74.16 148.98 77.79 143.19 84.19 C 137.21 90.63 134.06 99.26 133.15 107.91 C 131.72 119.57 134.18 131.28 137.54 142.38 C 127.16 131.74 119.58 117.12 121.28 101.91 C 122.83 84.04 136.26 68.84 152.65 62.49 C 160.05 59.50 168.10 58.32 176.07 58.49 C 189.11 58.61 202.37 58.74 215.08 55.39 C 221.99 53.55 228.76 49.99 232.92 44.00 C 236.59 38.91 238.37 32.82 240.56 27.03 Z" />
<path fill="#f89f32" opacity="1.00" d=" M 236.26 65.37 C 238.80 62.39 240.53 58.83 242.92 55.74 C 238.95 68.48 232.04 81.35 219.95 88.00 C 204.99 96.47 186.64 93.72 171.42 101.42 C 164.94 104.61 159.50 110.15 157.04 117.01 C 154.04 124.92 154.27 133.55 154.81 141.85 C 151.78 142.97 148.55 143.17 145.40 142.51 C 144.60 131.46 145.14 120.07 148.62 109.48 C 151.26 101.17 157.23 93.84 165.38 90.45 C 181.44 83.64 199.64 86.16 215.92 80.13 C 223.87 77.18 231.04 72.08 236.26 65.37 Z" />
<path fill="#f89f32" opacity="1.00" d=" M 222.32 96.40 C 231.47 90.98 238.35 82.38 243.00 72.92 C 242.08 77.46 239.89 81.61 237.88 85.75 C 233.35 94.40 226.98 102.71 217.87 106.83 C 206.35 112.39 192.48 110.53 181.50 117.50 C 173.32 122.45 168.47 131.02 164.40 139.37 C 164.86 131.13 166.40 122.38 171.71 115.79 C 176.45 110.00 183.87 107.47 190.96 105.99 C 201.64 103.78 212.83 102.17 222.32 96.40 Z" />
<path fill="#f89f32" opacity="1.00" d=" M 115.78 141.81 C 122.88 145.71 130.40 148.98 138.40 150.46 C 146.20 152.01 154.37 151.94 162.13 150.20 C 169.69 148.65 176.73 145.39 183.54 141.87 C 183.50 146.45 183.49 151.03 183.51 155.62 C 174.18 160.21 164.18 163.73 153.77 164.71 C 151.36 164.97 148.93 165.07 146.50 165.02 C 135.65 164.91 125.08 161.37 115.85 155.78 C 115.71 151.13 115.72 146.47 115.78 141.81 Z" />
<path fill="#f89f32" opacity="1.00" d=" M 97.62 260.35 C 99.43 257.89 101.22 255.20 103.93 253.65 C 102.44 263.34 103.64 273.23 103.23 283.00 C 103.50 285.20 102.05 289.32 105.82 288.90 L 105.68 290.51 C 102.97 290.50 100.25 290.52 97.53 290.43 C 97.77 289.01 98.59 288.28 100.00 288.25 C 99.99 278.91 100.03 269.58 99.98 260.25 C 99.47 260.71 98.47 261.63 97.97 262.10 C 97.88 261.66 97.70 260.78 97.62 260.35 Z" />
<path fill="#f89f32" opacity="1.00" d=" M 182.59 260.72 C 184.40 258.00 186.54 255.45 189.13 253.45 C 188.01 259.22 188.66 265.12 188.50 270.96 C 188.61 276.72 188.27 282.51 188.64 288.26 C 189.31 288.43 190.64 288.77 191.31 288.93 C 191.14 289.31 190.82 290.06 190.65 290.44 C 188.20 290.61 185.74 290.59 183.29 290.45 C 183.15 289.98 182.86 289.04 182.72 288.58 C 183.35 288.54 184.62 288.48 185.26 288.44 C 185.29 279.18 185.15 269.91 185.34 260.65 C 184.36 261.20 183.19 262.25 182.59 260.72 Z" />
<path fill="#f89f32" opacity="1.00" d=" M 29.42 257.09 C 29.56 255.80 30.58 255.40 31.67 255.18 C 31.82 259.77 31.72 264.37 31.76 268.97 C 31.26 268.98 30.26 269.00 29.76 269.01 C 29.45 265.96 30.72 262.15 28.33 259.71 C 25.28 257.29 20.47 261.18 22.42 264.67 C 25.97 269.92 33.52 270.62 36.93 276.10 C 38.82 279.66 37.91 284.29 35.19 287.17 C 30.30 292.51 21.09 292.94 15.57 288.37 C 10.76 284.37 11.07 275.68 16.45 272.30 C 19.24 270.33 22.86 270.68 25.92 271.78 C 22.80 270.28 19.20 267.91 19.46 263.96 C 18.90 258.69 24.91 255.78 29.42 257.09 M 17.54 274.55 C 13.95 277.76 14.51 283.94 18.20 286.86 C 23.47 292.02 34.41 288.81 34.78 281.07 C 35.12 276.46 30.12 274.66 27.00 272.51 C 27.91 274.62 29.18 277.37 27.41 279.41 C 26.36 280.84 24.51 280.88 22.91 280.77 C 22.08 278.80 25.52 278.04 25.22 276.13 C 24.47 272.73 19.66 272.01 17.54 274.55 Z" />
<path fill="#f89f32" opacity="1.00" d=" M 179.00 255.98 C 179.44 255.99 180.32 256.03 180.76 256.04 C 180.71 260.63 180.84 265.22 180.63 269.81 C 180.24 269.68 179.47 269.44 179.08 269.32 C 178.73 266.39 179.34 262.45 176.37 260.68 C 169.88 256.68 160.73 259.66 157.33 266.34 C 151.80 275.61 159.25 289.35 170.15 289.37 C 174.38 289.69 177.90 287.15 181.09 284.74 C 181.44 285.11 182.16 285.85 182.52 286.22 C 175.92 293.17 163.45 293.23 156.94 286.12 C 151.59 281.09 150.82 272.42 154.13 266.08 C 158.86 257.63 170.37 254.34 179.02 258.50 C 179.01 257.87 179.00 256.61 179.00 255.98 Z" />
<path fill="#f89f32" opacity="1.00" d=" M 110.43 258.38 C 113.22 257.45 114.96 262.35 111.92 263.12 C 108.71 264.69 107.11 259.13 110.43 258.38 Z" />
<path fill="#f89f32" opacity="1.00" d=" M 116.97 257.75 C 117.80 257.75 119.46 257.75 120.29 257.76 C 120.09 262.19 120.20 266.66 119.72 271.07 C 119.21 271.26 118.19 271.63 117.68 271.82 C 117.16 267.14 117.32 262.43 116.97 257.75 Z" />
<path fill="#f89f32" opacity="1.00" d=" M 58.56 274.38 C 60.14 271.32 62.35 268.45 65.29 266.60 C 65.27 267.87 64.89 269.03 64.15 270.07 C 66.98 267.73 72.19 267.18 74.05 271.00 C 76.05 276.11 74.35 281.79 75.20 287.11 C 75.26 288.56 76.15 289.11 77.88 288.77 L 77.65 290.52 C 75.00 290.50 72.35 290.51 69.70 290.46 C 69.78 288.98 70.55 288.25 72.00 288.27 C 71.78 283.18 72.50 278.00 71.57 272.98 C 71.14 270.57 67.91 269.32 66.09 271.04 C 63.90 273.05 64.32 276.28 64.23 278.96 C 64.37 282.07 63.90 285.26 64.56 288.32 C 65.12 288.47 66.24 288.76 66.80 288.90 L 66.70 290.51 C 64.05 290.50 61.40 290.50 58.76 290.50 L 58.73 288.56 C 59.31 288.52 60.46 288.45 61.04 288.42 C 60.97 283.66 61.00 278.90 61.00 274.15 C 60.39 274.21 59.17 274.32 58.56 274.38 Z" />
<path fill="#f89f32" opacity="1.00" d=" M 80.01 266.75 L 81.77 266.74 C 81.75 267.55 81.69 269.16 81.67 269.96 C 84.11 268.74 86.89 267.61 89.65 268.50 C 92.45 269.18 93.93 272.17 93.97 274.87 C 94.13 279.49 93.77 284.13 94.31 288.73 C 95.01 288.74 96.42 288.76 97.12 288.77 L 97.15 290.52 C 94.90 290.51 92.66 290.48 90.42 290.34 C 87.72 290.98 84.63 291.63 82.12 290.06 C 78.48 287.88 77.41 281.62 81.06 279.00 C 79.13 275.22 80.29 270.81 80.01 266.75 M 81.60 275.81 C 82.01 276.34 82.42 276.86 82.84 277.38 C 85.13 275.19 88.35 275.75 91.19 275.99 C 90.62 273.75 90.26 269.75 87.01 270.22 C 83.81 269.87 82.57 273.45 81.60 275.81 M 84.37 278.49 C 81.43 280.12 81.07 284.34 83.11 286.85 C 84.69 289.44 89.34 290.00 90.87 287.12 C 91.15 284.73 91.16 282.30 90.88 279.91 C 89.57 277.74 86.48 277.06 84.37 278.49 Z" />
<path fill="#f89f32" opacity="1.00" d=" M 106.87 274.05 C 109.20 271.78 110.58 267.64 113.99 267.05 C 111.87 272.15 113.04 277.73 112.72 283.10 C 112.92 285.34 111.89 289.66 115.59 288.80 L 115.44 290.51 C 112.71 290.50 109.99 290.50 107.27 290.50 L 107.23 288.52 C 107.86 288.51 109.12 288.50 109.75 288.49 C 109.78 283.77 109.63 279.04 109.89 274.32 C 109.13 274.26 107.63 274.12 106.87 274.05 Z" />
<path fill="#f89f32" opacity="1.00" d=" M 133.06 267.00 L 134.75 267.00 C 134.75 270.08 134.75 273.16 134.74 276.25 L 133.20 276.28 C 132.69 274.21 132.94 271.43 130.76 270.26 C 128.42 269.05 125.41 271.17 126.01 273.81 C 129.31 276.48 134.32 276.50 137.02 280.06 C 139.05 283.70 137.30 288.81 133.31 290.23 C 128.45 292.19 120.29 291.13 119.39 284.88 C 118.34 279.81 125.53 275.98 129.04 279.86 C 131.35 281.72 129.18 286.83 126.26 285.03 C 126.33 284.22 126.47 282.59 126.54 281.78 C 125.27 281.36 123.42 280.21 122.34 281.56 C 120.75 282.78 121.31 285.19 122.55 286.45 C 124.88 288.94 128.67 289.97 131.92 288.93 C 134.65 287.89 135.83 284.17 134.35 281.69 C 131.65 279.37 127.87 279.01 124.92 277.11 C 122.23 275.08 123.05 270.41 126.00 269.05 C 128.11 267.71 130.66 268.32 132.91 268.89 C 132.95 268.42 133.02 267.47 133.06 267.00 Z" />
<path fill="#f89f32" opacity="1.00" d=" M 193.75 266.77 L 195.52 266.73 C 195.49 267.53 195.43 269.13 195.39 269.93 C 198.59 268.20 203.14 267.11 205.96 270.08 C 209.16 274.76 207.18 280.78 207.77 286.05 C 207.43 288.18 208.47 289.25 210.67 288.91 L 210.85 290.50 C 206.83 290.18 202.87 290.68 198.89 291.02 C 192.59 290.79 190.20 281.55 195.34 278.02 C 194.94 277.90 194.13 277.65 193.73 277.53 C 193.76 273.94 193.75 270.36 193.75 266.77 M 195.29 275.97 C 195.85 276.41 196.41 276.85 196.98 277.29 C 198.81 274.92 202.17 276.03 204.71 275.85 C 204.34 273.69 204.02 270.10 201.06 270.21 C 197.70 269.71 196.10 273.40 195.29 275.97 M 198.30 278.33 C 194.52 280.17 194.73 285.80 197.98 288.06 C 200.33 290.20 205.56 288.78 204.80 285.07 C 204.58 282.97 205.55 279.91 203.31 278.66 C 201.87 277.62 199.84 277.38 198.30 278.33 Z" />
<path fill="#f89f32" opacity="1.00" d=" M 224.39 267.37 C 224.78 267.20 225.56 266.86 225.95 266.68 C 225.99 269.81 226.13 272.95 225.90 276.08 L 224.76 276.58 C 223.63 274.38 224.19 270.43 220.99 270.01 C 218.61 269.28 216.26 272.11 217.56 274.27 C 220.95 276.36 225.45 276.70 228.08 279.94 C 230.56 283.71 228.26 289.16 224.05 290.45 C 219.41 291.87 212.51 291.25 210.77 285.88 C 209.09 281.51 213.93 277.09 218.21 278.50 C 221.42 279.05 222.39 284.63 218.85 285.45 C 215.97 285.71 218.74 282.18 216.84 281.15 C 215.47 280.89 213.72 280.69 213.00 282.19 C 211.35 284.55 213.99 287.11 216.00 288.17 C 219.32 290.27 225.48 289.80 226.04 285.08 C 227.16 277.37 213.63 280.70 214.49 272.95 C 215.00 268.42 220.46 267.43 224.06 268.78 L 224.39 267.37 Z" />
<path fill="#f89f32" opacity="1.00" d=" M 243.06 267.00 L 244.75 267.00 C 244.75 270.08 244.75 273.17 244.74 276.25 L 243.22 276.28 C 242.73 274.40 242.95 272.08 241.36 270.69 C 239.38 268.64 235.02 270.92 236.17 273.81 C 239.34 276.61 244.52 276.49 247.08 280.15 C 249.33 284.08 246.90 289.34 242.61 290.52 C 237.90 291.97 230.29 290.96 229.50 285.01 C 228.60 280.81 233.16 277.11 237.09 278.59 C 240.32 279.26 241.12 284.15 237.94 285.54 C 235.43 285.68 236.51 283.36 236.62 281.82 C 234.96 280.81 232.06 280.35 231.52 282.82 C 230.95 287.65 237.12 289.96 241.09 289.21 C 245.20 288.66 246.76 281.74 242.37 280.41 C 239.06 278.48 233.12 278.27 233.28 273.20 C 233.73 268.57 239.21 267.28 242.90 268.90 C 242.94 268.42 243.02 267.47 243.06 267.00 Z" />
<path fill="#f89f32" opacity="1.00" d=" M 285.23 267.03 C 285.67 267.02 286.55 267.00 286.99 266.98 C 286.97 270.01 287.13 273.05 286.90 276.09 L 285.72 276.57 C 284.71 274.48 285.19 271.41 282.83 270.19 C 280.81 269.34 278.30 270.54 278.16 272.83 C 278.06 274.58 279.87 274.96 281.13 275.53 C 283.75 276.56 286.59 277.38 288.66 279.39 C 291.51 282.77 289.83 288.49 285.80 290.13 C 280.62 292.38 272.22 291.06 271.40 284.36 C 267.63 292.82 253.90 293.48 249.76 285.05 C 246.05 277.85 252.28 269.20 259.83 268.41 C 265.07 267.35 269.90 270.99 271.78 275.71 C 265.14 276.06 258.49 275.25 251.86 275.78 C 251.28 279.02 251.12 282.84 253.68 285.34 C 256.90 289.39 263.57 289.90 267.31 286.31 C 268.78 284.95 269.54 282.76 271.57 282.10 C 273.33 279.04 277.55 276.89 280.69 279.27 C 283.44 281.12 282.12 286.00 278.53 285.56 C 278.44 284.05 279.40 281.11 277.01 281.02 C 274.78 280.30 272.67 282.91 273.73 284.97 C 275.63 288.50 280.21 290.05 283.98 289.01 C 286.85 288.01 288.00 284.08 286.42 281.60 C 283.48 279.21 279.42 278.89 276.45 276.58 C 274.62 274.22 275.46 270.40 278.13 269.06 C 280.31 267.66 282.95 268.37 285.28 268.90 C 285.27 268.43 285.24 267.50 285.23 267.03 M 253.62 273.69 C 258.08 273.80 262.55 273.80 267.02 273.65 C 263.35 269.98 257.21 269.81 253.62 273.69 Z" />
<path fill="#f89f32" opacity="1.00" d=" M 37.61 268.81 C 39.74 268.75 41.87 268.74 44.00 268.74 C 44.04 273.87 43.93 279.00 44.02 284.12 C 44.01 286.08 44.63 288.74 46.98 288.99 C 49.44 289.61 51.26 287.12 51.40 284.93 C 51.65 280.26 51.51 275.58 51.39 270.91 C 50.69 270.80 49.28 270.58 48.58 270.46 C 48.65 270.04 48.79 269.18 48.85 268.75 C 50.82 268.75 52.79 268.75 54.75 268.76 C 54.88 275.35 54.46 281.97 54.96 288.55 C 55.65 288.64 57.04 288.83 57.74 288.92 L 57.75 290.54 C 54.49 290.56 51.18 290.02 47.97 290.84 C 44.79 291.78 41.28 289.37 40.99 286.08 C 40.44 281.18 40.90 276.24 40.73 271.33 C 39.44 270.78 37.83 270.51 37.61 268.81 Z" />
</g>
<g id="#373435ff">
<path fill="#373435" opacity="1.00" d=" M 109.46 120.95 C 109.55 119.60 109.23 118.12 109.86 116.87 C 115.67 122.85 120.72 129.53 126.24 135.79 C 130.26 140.71 134.69 145.30 138.40 150.46 C 130.40 148.98 122.88 145.71 115.78 141.81 C 115.72 146.47 115.71 151.13 115.85 155.78 C 125.08 161.37 135.65 164.91 146.50 165.02 C 146.47 184.44 146.56 203.87 146.46 223.29 C 145.48 222.35 144.52 221.39 143.67 220.34 C 132.67 206.37 121.60 192.44 110.58 178.48 C 109.71 177.53 109.41 176.28 109.48 175.02 C 109.49 157.00 109.55 138.97 109.46 120.95 Z" />
<path fill="#373435" opacity="1.00" d=" M 169.87 140.77 C 176.85 132.72 183.49 124.37 190.71 116.53 C 190.80 136.02 190.71 155.50 190.76 174.99 C 191.19 177.46 189.21 179.16 187.87 180.92 C 176.45 195.10 165.38 209.57 153.86 223.67 C 153.62 204.02 153.79 184.36 153.77 164.71 C 164.18 163.73 174.18 160.21 183.51 155.62 C 183.49 151.03 183.50 146.45 183.54 141.87 C 176.73 145.39 169.69 148.65 162.13 150.20 C 164.41 146.82 167.27 143.90 169.87 140.77 Z" />
<path fill="#373435" opacity="1.00" d=" M 69.48 128.88 C 81.26 133.92 92.95 139.18 104.54 144.62 C 103.89 155.64 104.42 166.70 104.25 177.74 C 115.95 193.06 128.10 208.04 139.63 223.49 C 116.13 211.69 93.02 199.14 69.59 187.22 C 69.37 167.77 69.58 148.33 69.48 128.88 Z" />
<path fill="#373435" opacity="1.00" d=" M 196.10 144.27 C 207.71 139.24 219.16 133.87 230.76 128.82 C 230.75 148.22 230.70 167.62 230.79 187.02 C 207.49 199.30 184.16 211.55 160.71 223.52 C 172.19 208.14 184.22 193.17 195.98 177.99 C 196.10 166.75 195.85 155.51 196.10 144.27 Z" />
<path fill="#373435" opacity="1.00" d=" M 236.56 151.81 C 242.37 150.67 248.16 149.46 253.93 148.17 C 254.04 167.64 254.06 187.12 253.92 206.59 C 223.49 213.48 193.16 220.82 162.73 227.72 C 174.81 220.93 187.42 215.05 199.77 208.75 C 211.92 202.37 224.33 196.52 236.46 190.10 C 236.60 177.34 236.39 164.57 236.56 151.81 Z" />
<path fill="#373435" opacity="1.00" d=" M 46.27 206.49 C 46.35 187.08 46.03 167.65 46.43 148.24 C 52.21 149.46 58.00 150.59 63.76 151.90 C 64.09 164.64 64.05 177.39 63.94 190.13 C 88.61 202.81 113.51 215.06 138.18 227.76 C 107.47 220.99 76.92 213.50 46.27 206.49 Z" />
<path fill="#373435" opacity="1.00" d=" M 34.25 172.26 C 36.24 172.25 38.23 172.24 40.22 172.24 C 40.28 185.03 40.24 197.83 40.24 210.63 C 66.12 216.34 92.00 222.03 117.88 227.78 C 122.06 228.77 126.33 229.38 130.42 230.76 C 127.27 231.07 124.10 231.02 120.95 231.01 C 92.04 230.97 63.14 231.04 34.24 230.98 C 34.27 211.40 34.24 191.83 34.25 172.26 Z" />
<path fill="#373435" opacity="1.00" d=" M 260.28 172.25 C 262.25 172.24 264.22 172.24 266.20 172.23 C 266.31 191.82 266.22 211.41 266.25 231.00 C 238.51 231.00 210.77 231.00 183.04 231.00 C 178.60 230.99 174.16 231.15 169.74 230.71 C 199.75 223.81 229.86 217.32 259.94 210.71 C 260.23 197.89 259.63 185.05 260.28 172.25 Z" />
</g>
<g id="#ffffffff">
</g>
</svg>
